<?xml version="1.0" encoding="utf-8"?>
<!-- Generator: Adobe Illustrator 16.0.0, SVG Export Plug-In . SVG Version: 6.00 Build 0)  -->
<svg version="1.2" baseProfile="tiny" id="Layer_1" xmlns="http://www.w3.org/2000/svg" xmlns:xlink="http://www.w3.org/1999/xlink"
	 x="0px" y="0px" width="19.875px" height="18.369px" viewBox="0 0 19.875 18.369" overflow="scroll" xml:space="preserve">
<polygon fill="none" stroke="#5584FF" stroke-width="0.8747" stroke-linecap="round" stroke-linejoin="round" stroke-miterlimit="10" points="
	9.938,0.438 0.438,10.059 2.503,10.059 2.503,17.931 7.313,17.931 7.313,11.808 12.562,11.808 12.562,17.931 17.373,17.931 
	17.373,10.059 19.438,10.059 "/>
</svg>
